module issiata.com/dev/distcalc

go 1.13

require (
	github.com/golang/protobuf v1.3.3
	github.com/gorilla/mux v1.7.3
	golang.org/x/net v0.0.0-20200202094626-16171245cfb2 // indirect
	golang.org/x/sys v0.0.0-20200202164722-d101bd2416d5 // indirect
	golang.org/x/text v0.3.2 // indirect
	google.golang.org/genproto v0.0.0-20200205142000-a86caf926a67 // indirect
	google.golang.org/grpc v1.27.0
)
